Risc-V/result.vcd
$date
  Mon Jun 20 15:50:49 2022
$end
$version
  GHDL v0
$end
$timescale
  1 fs
$end
$scope module standard $end
$upscope $end
$scope module std_logic_1164 $end
$upscope $end
$scope module numeric_std $end
$upscope $end
$scope module checkresultpkg $end
$var reg 32 ! g_dmem_128[31:0] $end
$var reg 32 " g_dmem_129[31:0] $end
$var reg 32 # g_dmem_130[31:0] $end
$var reg 32 $ g_dmem_131[31:0] $end
$upscope $end
$scope module std_logic_arith $end
$upscope $end
$scope module textio $end
$upscope $end
$scope module std_logic_textio $end
$upscope $end
$scope module testbench $end
$var reg 32 % writedata[31:0] $end
$var reg 32 & dataadr[31:0] $end
$var reg 1 ' clk $end
$var reg 1 ( reset $end
$var reg 1 ) memwrite $end
$scope module dut $end
$var reg 1 * clk $end
$var reg 1 + reset $end
$var reg 32 , writedata[31:0] $end
$var reg 32 - dataadr[31:0] $end
$var reg 1 . memwrite $end
$var reg 32 / pc[31:0] $end
$var reg 32 0 instr[31:0] $end
$var reg 32 1 readdata[31:0] $end
$var reg 1 2 memwrite_s $end
$var reg 32 3 writedata_s[31:0] $end
$var reg 32 4 dataadr_s[31:0] $end
$scope module rvsingle $end
$var reg 1 5 clk $end
$var reg 1 6 reset $end
$var reg 32 7 pc[31:0] $end
$var reg 32 8 instr[31:0] $end
$var reg 1 9 memwrite $end
$var reg 32 : aluresult[31:0] $end
$var reg 32 ; writedata[31:0] $end
$var reg 32 < readdata[31:0] $end
$var reg 1 = alusrc $end
$var reg 1 > regwrite $end
$var reg 1 ? jump $end
$var reg 1 @ bsign $end
$var reg 1 A pcsrc $end
$var reg 1 B pctargetsrc $end
$var reg 2 C resultsrc[1:0] $end
$var reg 3 D immsrc[2:0] $end
$var reg 3 E alucontrol[2:0] $end
$scope module c $end
$var reg 7 F op[6:0] $end
$var reg 3 G funct3[2:0] $end
$var reg 1 H funct7b5 $end
$var reg 1 I bsign $end
$var reg 2 J resultsrc[1:0] $end
$var reg 1 K memwrite $end
$var reg 1 L pcsrc $end
$var reg 1 M alusrc $end
$var reg 1 N regwrite $end
$var reg 1 O jump $end
$var reg 3 P immsrc[2:0] $end
$var reg 3 Q alucontrol[2:0] $end
$var reg 1 R pctargetsrc $end
$var reg 2 S aluop[1:0] $end
$var reg 1 T branch $end
$var reg 1 U jump_s $end
$scope module md $end
$var reg 7 V op[6:0] $end
$var reg 2 W resultsrc[1:0] $end
$var reg 1 X memwrite $end
$var reg 1 Y branch $end
$var reg 1 Z alusrc $end
$var reg 1 [ regwrite $end
$var reg 1 \ jump $end
$var reg 3 ] immsrc[2:0] $end
$var reg 2 ^ aluop[1:0] $end
$var reg 1 _ pctargetsrc $end
$var reg 13 ` controls[12:0] $end
$upscope $end
$scope module ad $end
$var reg 1 a opb5 $end
$var reg 3 b funct3[2:0] $end
$var reg 1 c funct7b5 $end
$var reg 2 d aluop[1:0] $end
$var reg 3 e alucontrol[2:0] $end
$var reg 1 f rtypesub $end
$upscope $end
$upscope $end
$scope module dp $end
$var reg 1 g clk $end
$var reg 1 h reset $end
$var reg 2 i resultsrc[1:0] $end
$var reg 1 j pcsrc $end
$var reg 1 k alusrc $end
$var reg 1 l regwrite $end
$var reg 3 m immsrc[2:0] $end
$var reg 3 n alucontrol[2:0] $end
$var reg 1 o bsign $end
$var reg 32 p pc[31:0] $end
$var reg 32 q instr[31:0] $end
$var reg 32 r aluresult[31:0] $end
$var reg 32 s writedata[31:0] $end
$var reg 32 t readdata[31:0] $end
$var reg 1 u pctargetsrc $end
$var reg 32 v pcnext[31:0] $end
$var reg 32 w pcplus4[31:0] $end
$var reg 32 x prepctarget[31:0] $end
$var reg 32 y pctarget[31:0] $end
$var reg 32 z immext[31:0] $end
$var reg 32 { srca[31:0] $end
$var reg 32 | srcb[31:0] $end
$var reg 32 } result[31:0] $end
$var reg 32 !" pc_s[31:0] $end
$var reg 32 "" writedata_s[31:0] $end
$var reg 32 #" aluresult_s[31:0] $end
$var reg 1 $" zero $end
$var reg 1 %" negative $end
$scope module pcreg $end
$var reg 1 &" clk $end
$var reg 1 '" reset $end
$var reg 32 (" d[31:0] $end
$var reg 32 )" q[31:0] $end
$upscope $end
$scope module pcadd4 $end
$var reg 32 *" a[31:0] $end
$var reg 32 +" b[31:0] $end
$var reg 32 ," y[31:0] $end
$upscope $end
$scope module srcpcmux $end
$var reg 32 -" d0[31:0] $end
$var reg 32 ." d1[31:0] $end
$var reg 1 /" s $end
$var reg 32 0" y[31:0] $end
$upscope $end
$scope module pcaddbranch $end
$var reg 32 1" a[31:0] $end
$var reg 32 2" b[31:0] $end
$var reg 32 3" y[31:0] $end
$upscope $end
$scope module pcmux $end
$var reg 32 4" d0[31:0] $end
$var reg 32 5" d1[31:0] $end
$var reg 1 6" s $end
$var reg 32 7" y[31:0] $end
$upscope $end
$scope module rf $end
$var reg 1 8" clk $end
$var reg 1 9" we3 $end
$var reg 5 :" a1[4:0] $end
$var reg 5 ;" a2[4:0] $end
$var reg 5 <" a3[4:0] $end
$var reg 32 =" wd3[31:0] $end
$var reg 32 >" rd1[31:0] $end
$var reg 32 ?" rd2[31:0] $end
$comment mem is not handled $end
$upscope $end
$scope module ext $end
$var reg 25 @" instr[31:7] $end
$var reg 3 A" immsrc[2:0] $end
$var reg 32 B" immext[31:0] $end
$upscope $end
$scope module srcbmux $end
$var reg 32 C" d0[31:0] $end
$var reg 32 D" d1[31:0] $end
$var reg 1 E" s $end
$var reg 32 F" y[31:0] $end
$upscope $end
$scope module mainalu $end
$var reg 32 G" a[31:0] $end
$var reg 32 H" b[31:0] $end
$var reg 3 I" alucontrol[2:0] $end
$var reg 32 J" aluresult[31:0] $end
$var reg 1 K" zero $end
$var reg 1 L" negative $end
$var reg 32 M" condinvb[31:0] $end
$var reg 32 N" sum[31:0] $end
$var reg 32 O" alucontrol_0_tmp[31:0] $end
$var reg 32 P" aluresult_s[31:0] $end
$upscope $end
$scope module resultmux $end
$var reg 32 Q" d0[31:0] $end
$var reg 32 R" d1[31:0] $end
$var reg 32 S" d2[31:0] $end
$var reg 2 T" s[1:0] $end
$var reg 32 U" y[31:0] $end
$upscope $end
$upscope $end
$upscope $end
$scope module imem1 $end
$var reg 32 V" a[31:0] $end
$var reg 32 W" rd[31:0] $end
$comment i_mem is not handled $end
$upscope $end
$scope module dmem1 $end
$var reg 1 X" clk $end
$var reg 1 Y" we $end
$var reg 32 Z" a[31:0] $end
$var reg 32 [" wd[31:0] $end
$var reg 32 \" rd[31:0] $end
$comment d_mem is not handled $end
$upscope $end
$upscope $end
$upscope $end
$enddefinitions $end
#0
b00000000000000000000000000000000 !
b00000000000000000000000000000000 "
b00000000000000000000000000000000 #
b00000000000000000000000000000000 $
b00000000000000000000000000000000 %
b00000000000000000000001001111111 &
1'
1(
0)
1*
1+
b00000000000000000000000000000000 ,
b00000000000000000000001001111111 -
0.
b00000000000000000000000000000000 /
b00100111111100000000001010010011 0
b00000000000000000000000000000000 1
02
b00000000000000000000000000000000 3
b00000000000000000000001001111111 4
15
16
b00000000000000000000000000000000 7
b00100111111100000000001010010011 8
09
b00000000000000000000001001111111 :
b00000000000000000000000000000000 ;
b00000000000000000000000000000000 <
1=
1>
0?
0@
0A
-B
b00 C
b000 D
b000 E
b0010011 F
b000 G
0H
0I
b00 J
0K
0L
1M
1N
0O
b000 P
b000 Q
-R
b10 S
0T
0U
b0010011 V
b00 W
0X
0Y
1Z
1[
0\
b000 ]
b10 ^
-_
b100010000100- `
0a
b000 b
0c
b10 d
b000 e
0f
1g
1h
b00 i
0j
1k
1l
b000 m
b000 n
0o
b00000000000000000000000000000000 p
b00100111111100000000001010010011 q
b00000000000000000000001001111111 r
b00000000000000000000000000000000 s
b00000000000000000000000000000000 t
-u
b00000000000000000000000000000100 v
b00000000000000000000000000000100 w
b00000000000000000000000000000000 x
b00000000000000000000001001111111 y
b00000000000000000000001001111111 z
b00000000000000000000000000000000 {
b00000000000000000000001001111111 |
b00000000000000000000001001111111 }
b00000000000000000000000000000000 !"
b00000000000000000000000000000000 ""
b00000000000000000000001001111111 #"
0$"
0%"
1&"
1'"
b00000000000000000000000000000100 ("
b00000000000000000000000000000000 )"
b00000000000000000000000000000000 *"
b00000000000000000000000000000100 +"
b00000000000000000000000000000100 ,"
b00000000000000000000000000000000 -"
b00000000000000000000000000000000 ."
-/"
b00000000000000000000000000000000 0"
b00000000000000000000000000000000 1"
b00000000000000000000001001111111 2"
b00000000000000000000001001111111 3"
b00000000000000000000000000000100 4"
b00000000000000000000001001111111 5"
06"
b00000000000000000000000000000100 7"
18"
19"
b00000 :"
b11111 ;"
b00101 <"
b00000000000000000000001001111111 ="
b00000000000000000000000000000000 >"
b00000000000000000000000000000000 ?"
b0010011111110000000000101 @"
b000 A"
b00000000000000000000001001111111 B"
b00000000000000000000000000000000 C"
b00000000000000000000001001111111 D"
1E"
b00000000000000000000001001111111 F"
b00000000000000000000000000000000 G"
b00000000000000000000001001111111 H"
b000 I"
b00000000000000000000001001111111 J"
0K"
0L"
b00000000000000000000001001111111 M"
b00000000000000000000001001111111 N"
b00000000000000000000000000000000 O"
b00000000000000000000001001111111 P"
b00000000000000000000001001111111 Q"
b00000000000000000000000000000000 R"
b00000000000000000000000000000100 S"
b00 T"
b00000000000000000000001001111111 U"
b00000000000000000000000000000000 V"
b00100111111100000000001010010011 W"
1X"
0Y"
b00000000000000000000001001111111 Z"
b00000000000000000000000000000000 ["
b00000000000000000000000000000000 \"
#5000000
0'
0*
05
0g
0&"
08"
0X"
#10000000
1'
1*
15
1g
1&"
18"
1X"
#15000000
0'
0*
05
0g
0&"
08"
0X"
#20000000
1'
1*
15
1g
1&"
18"
1X"
#22000000
0(
0+
06
0h
0'"
#25000000
0'
0*
05
0g
0&"
08"
0X"
#30000000
b00000000000000000000001001111111 %
b00000000000000000000000100000000 &
1'
1)
1*
b00000000000000000000001001111111 ,
b00000000000000000000000100000000 -
1.
b00000000000000000000000000000100 /
b00010000010100000010000000100011 0
12
b00000000000000000000001001111111 3
b00000000000000000000000100000000 4
15
b00000000000000000000000000000100 7
b00010000010100000010000000100011 8
19
b00000000000000000000000100000000 :
b00000000000000000000001001111111 ;
0>
0@
b-- C
b001 D
b000 E
b0100011 F
b010 G
0I
b-- J
1K
1M
0N
b001 P
b000 Q
-R
b00 S
b0100011 V
b-- W
1X
0Y
1Z
0[
0\
b001 ]
b00 ^
-_
b000111--0000- `
1a
b010 b
b00 d
b000 e
1g
b-- i
0l
b001 m
b000 n
0o
b00000000000000000000000000000100 p
b00010000010100000010000000100011 q
b00000000000000000000000100000000 r
b00000000000000000000001001111111 s
b00000000000000000000000000001000 v
b00000000000000000000000000001000 w
b00000000000000000000000100000000 y
b00000000000000000000000100000000 z
b00000000000000000000000100000000 |
b00000000000000000000000000000100 !"
b00000000000000000000001001111111 ""
b00000000000000000000000100000000 #"
0$"
0%"
1&"
b00000000000000000000000000001000 ("
b00000000000000000000000000000100 )"
b00000000000000000000000000000100 *"
b00000000000000000000000000001000 ,"
b00000000000000000000000000000100 ."
b00000000000000000000000100000000 2"
b00000000000000000000000100000000 3"
b00000000000000000000000000001000 4"
b00000000000000000000000100000000 5"
b00000000000000000000000000001000 7"
18"
09"
b00101 ;"
b00000 <"
b00000000000000000000001001111111 ?"
b0001000001010000001000000 @"
b001 A"
b00000000000000000000000100000000 B"
b00000000000000000000001001111111 C"
b00000000000000000000000100000000 D"
b00000000000000000000000100000000 F"
b00000000000000000000000100000000 H"
b000 I"
b00000000000000000000000100000000 J"
0K"
0L"
b00000000000000000000000100000000 M"
b00000000000000000000000100000000 N"
b00000000000000000000000000000000 O"
b00000000000000000000000100000000 P"
b00000000000000000000000100000000 Q"
b00000000000000000000000000001000 S"
b-- T"
b00000000000000000000000000000100 V"
b00010000010100000010000000100011 W"
1X"
1Y"
b00000000000000000000000100000000 Z"
b00000000000000000000001001111111 ["
#35000000
0'
0*
05
0g
0&"
08"
0X"
#40000000
b00000000000000000000000000000000 %
b00000000000000000001000000000000 &
1'
0)
1*
b00000000000000000000000000000000 ,
b00000000000000000001000000000000 -
0.
b00000000000000000000000000001000 /
b00000000000000000001001010110111 0
02
b00000000000000000000000000000000 3
b00000000000000000001000000000000 4
15
b00000000000000000000000000001000 7
b00000000000000000001001010110111 8
09
b00000000000000000001000000000000 :
b00000000000000000000000000000000 ;
1>
b00 C
b100 D
b110 E
b0110111 F
b001 G
b00 J
0K
1M
1N
b100 P
b110 Q
-R
b11 S
b0110111 V
b00 W
0X
0Y
1Z
1[
0\
b100 ]
b11 ^
-_
b110010000110- `
b001 b
b11 d
b110 e
1g
b00 i
1l
b100 m
b110 n
b00000000000000000000000000001000 p
b00000000000000000001001010110111 q
b00000000000000000001000000000000 r
b00000000000000000000000000000000 s
b00000000000000000000000000001100 v
b00000000000000000000000000001100 w
b00000000000000000001000000000000 y
b00000000000000000001000000000000 z
b00000000000000000001000000000000 |
b00000000000000000001000000000000 }
b00000000000000000000000000001000 !"
b00000000000000000000000000000000 ""
b00000000000000000001000000000000 #"
1&"
b00000000000000000000000000001100 ("
b00000000000000000000000000001000 )"
b00000000000000000000000000001000 *"
b00000000000000000000000000001100 ,"
b00000000000000000000000000001000 ."
b00000000000000000001000000000000 2"
b00000000000000000001000000000000 3"
b00000000000000000000000000001100 4"
b00000000000000000001000000000000 5"
b00000000000000000000000000001100 7"
18"
19"
b00000 ;"
b00101 <"
b00000000000000000001000000000000 ="
b00000000000000000000000000000000 ?"
b0000000000000000000100101 @"
b100 A"
b00000000000000000001000000000000 B"
b00000000000000000000000000000000 C"
b00000000000000000001000000000000 D"
b00000000000000000001000000000000 F"
b00000000000000000001000000000000 H"
b110 I"
b00000000000000000001000000000000 J"
b00000000000000000001000000000000 M"
b00000000000000000001000000000000 N"
b00000000000000000001000000000000 P"
b00000000000000000001000000000000 Q"
b00000000000000000000000000001100 S"
b00 T"
b00000000000000000001000000000000 U"
b00000000000000000000000000001000 V"
b00000000000000000001001010110111 W"
1X"
0Y"
b00000000000000000001000000000000 Z"
b00000000000000000000000000000000 ["
#45000000
0'
0*
05
0g
0&"
08"
0X"
#50000000
b00000000000000000000100111100110 &
1'
1*
b00000000000000000000100111100110 -
b00000000000000000000000000001100 /
b10011110011000101000001010010011 0
b00000000000000000000100111100110 4
15
b00000000000000000000000000001100 7
b10011110011000101000001010010011 8
09
b00000000000000000000100111100110 :
b000 D
b000 E
b0010011 F
b000 G
b00 J
0K
1M
1N
b000 P
b000 Q
-R
b10 S
b0010011 V
b00 W
0X
0Y
1Z
1[
0\
b000 ]
b10 ^
-_
b100010000100- `
0a
b000 b
b10 d
b000 e
1g
b000 m
b000 n
b00000000000000000000000000001100 p
b10011110011000101000001010010011 q
b00000000000000000000100111100110 r
b00000000000000000000000000010000 v
b00000000000000000000000000010000 w
b00000000000000000001000000000000 x
b00000000000000000000100111100110 y
b11111111111111111111100111100110 z
b00000000000000000001000000000000 {
b11111111111111111111100111100110 |
b00000000000000000000100111100110 }
b00000000000000000000000000001100 !"
b00000000000000000000100111100110 #"
0%"
1&"
b00000000000000000000000000010000 ("
b00000000000000000000000000001100 )"
b00000000000000000000000000001100 *"
b00000000000000000000000000010000 ,"
b00000000000000000001000000000000 -"
b00000000000000000000000000001100 ."
b00000000000000000001000000000000 0"
b00000000000000000001000000000000 1"
b11111111111111111111100111100110 2"
b00000000000000000000100111100110 3"
b00000000000000000000000000010000 4"
b00000000000000000000100111100110 5"
b00000000000000000000000000010000 7"
18"
b00101 :"
b00110 ;"
b00000000000000000000100111100110 ="
b00000000000000000001000000000000 >"
b1001111001100010100000101 @"
b000 A"
b11111111111111111111100111100110 B"
b11111111111111111111100111100110 D"
b11111111111111111111100111100110 F"
b00000000000000000001000000000000 G"
b11111111111111111111100111100110 H"
b000 I"
b00000000000000000000100111100110 J"
0L"
b11111111111111111111100111100110 M"
b00000000000000000000100111100110 N"
b00000000000000000000100111100110 P"
b00000000000000000000100111100110 Q"
b00000000000000000000000000010000 S"
b00000000000000000000100111100110 U"
b00000000000000000000000000001100 V"
b10011110011000101000001010010011 W"
1X"
b00000000000000000000100111100110 Z"
#55000000
0'
0*
05
0g
0&"
08"
0X"
#60000000
b00000000000000000000100111100110 %
b00000000000000000000000100000100 &
1'
1)
1*
b00000000000000000000100111100110 ,
b00000000000000000000000100000100 -
1.
b00000000000000000000000000010000 /
b00010000010100000010001000100011 0
12
b00000000000000000000100111100110 3
b00000000000000000000000100000100 4
15
b00000000000000000000000000010000 7
b00010000010100000010001000100011 8
19
b00000000000000000000000100000100 :
b00000000000000000000100111100110 ;
0>
0@
b-- C
b001 D
b000 E
b0100011 F
b010 G
0I
b-- J
1K
1M
0N
b001 P
b000 Q
-R
b00 S
b0100011 V
b-- W
1X
0Y
1Z
0[
0\
b001 ]
b00 ^
-_
b000111--0000- `
1a
b010 b
b00 d
b000 e
1g
b-- i
0l
b001 m
b000 n
0o
b00000000000000000000000000010000 p
b00010000010100000010001000100011 q
b00000000000000000000000100000100 r
b00000000000000000000100111100110 s
b00000000000000000000000000010100 v
b00000000000000000000000000010100 w
b00000000000000000000000000000000 x
b00000000000000000000000100000100 y
b00000000000000000000000100000100 z
b00000000000000000000000000000000 {
b00000000000000000000000100000100 |
b00000000000000000000000000010000 !"
b00000000000000000000100111100110 ""
b00000000000000000000000100000100 #"
0$"
0%"
1&"
b00000000000000000000000000010100 ("
b00000000000000000000000000010000 )"
b00000000000000000000000000010000 *"
b00000000000000000000000000010100 ,"
b00000000000000000000000000000000 -"
b00000000000000000000000000010000 ."
b00000000000000000000000000000000 0"
b00000000000000000000000000000000 1"
b00000000000000000000000100000100 2"
b00000000000000000000000100000100 3"
b00000000000000000000000000010100 4"
b00000000000000000000000100000100 5"
b00000000000000000000000000010100 7"
18"
09"
b00000 :"
b00101 ;"
b00100 <"
b00000000000000000000000000000000 >"
b00000000000000000000100111100110 ?"
b0001000001010000001000100 @"
b001 A"
b00000000000000000000000100000100 B"
b00000000000000000000100111100110 C"
b00000000000000000000000100000100 D"
b00000000000000000000000100000100 F"
b00000000000000000000000000000000 G"
b00000000000000000000000100000100 H"
b000 I"
b00000000000000000000000100000100 J"
0K"
0L"
b00000000000000000000000100000100 M"
b00000000000000000000000100000100 N"
b00000000000000000000000000000000 O"
b00000000000000000000000100000100 P"
b00000000000000000000000100000100 Q"
b00000000000000000000000000010100 S"
b-- T"
b00000000000000000000000000010000 V"
b00010000010100000010001000100011 W"
1X"
1Y"
b00000000000000000000000100000100 Z"
b00000000000000000000100111100110 ["
#65000000
0'
0*
05
0g
0&"
08"
0X"
#70000000
b00000000000000000000000000000000 %
b00000000000000000001000000000000 &
1'
0)
1*
b00000000000000000000000000000000 ,
b00000000000000000001000000000000 -
0.
b00000000000000000000000000010100 /
b00000000000000000001001010110111 0
02
b00000000000000000000000000000000 3
b00000000000000000001000000000000 4
15
b00000000000000000000000000010100 7
b00000000000000000001001010110111 8
09
b00000000000000000001000000000000 :
b00000000000000000000000000000000 ;
1>
b00 C
b100 D
b110 E
b0110111 F
b001 G
b00 J
0K
1M
1N
b100 P
b110 Q
-R
b11 S
b0110111 V
b00 W
0X
0Y
1Z
1[
0\
b100 ]
b11 ^
-_
b110010000110- `
b001 b
b11 d
b110 e
1g
b00 i
1l
b100 m
b110 n
b00000000000000000000000000010100 p
b00000000000000000001001010110111 q
b00000000000000000001000000000000 r
b00000000000000000000000000000000 s
b00000000000000000000000000011000 v
b00000000000000000000000000011000 w
b00000000000000000001000000000000 y
b00000000000000000001000000000000 z
b00000000000000000001000000000000 |
b00000000000000000001000000000000 }
b00000000000000000000000000010100 !"
b00000000000000000000000000000000 ""
b00000000000000000001000000000000 #"
1&"
b00000000000000000000000000011000 ("
b00000000000000000000000000010100 )"
b00000000000000000000000000010100 *"
b00000000000000000000000000011000 ,"
b00000000000000000000000000010100 ."
b00000000000000000001000000000000 2"
b00000000000000000001000000000000 3"
b00000000000000000000000000011000 4"
b00000000000000000001000000000000 5"
b00000000000000000000000000011000 7"
18"
19"
b00000 ;"
b00101 <"
b00000000000000000001000000000000 ="
b00000000000000000000000000000000 ?"
b0000000000000000000100101 @"
b100 A"
b00000000000000000001000000000000 B"
b00000000000000000000000000000000 C"
b00000000000000000001000000000000 D"
b00000000000000000001000000000000 F"
b00000000000000000001000000000000 H"
b110 I"
b00000000000000000001000000000000 J"
b00000000000000000001000000000000 M"
b00000000000000000001000000000000 N"
b00000000000000000001000000000000 P"
b00000000000000000001000000000000 Q"
b00000000000000000000000000011000 S"
b00 T"
b00000000000000000001000000000000 U"
b00000000000000000000000000010100 V"
b00000000000000000001001010110111 W"
1X"
0Y"
b00000000000000000001000000000000 Z"
b00000000000000000000000000000000 ["
#75000000
0'
0*
05
0g
0&"
08"
0X"
#80000000
b00000000000000000000101000101000 &
1'
1*
b00000000000000000000101000101000 -
b00000000000000000000000000011000 /
b10100010100000101000001010010011 0
b00000000000000000000101000101000 4
15
b00000000000000000000000000011000 7
b10100010100000101000001010010011 8
09
b00000000000000000000101000101000 :
b000 D
b000 E
b0010011 F
b000 G
b00 J
0K
1M
1N
b000 P
b000 Q
-R
b10 S
b0010011 V
b00 W
0X
0Y
1Z
1[
0\
b000 ]
b10 ^
-_
b100010000100- `
0a
b000 b
b10 d
b000 e
1g
b000 m
b000 n
b00000000000000000000000000011000 p
b10100010100000101000001010010011 q
b00000000000000000000101000101000 r
b00000000000000000000000000011100 v
b00000000000000000000000000011100 w
b00000000000000000001000000000000 x
b00000000000000000000101000101000 y
b11111111111111111111101000101000 z
b00000000000000000001000000000000 {
b11111111111111111111101000101000 |
b00000000000000000000101000101000 }
b00000000000000000000000000011000 !"
b00000000000000000000101000101000 #"
0%"
1&"
b00000000000000000000000000011100 ("
b00000000000000000000000000011000 )"
b00000000000000000000000000011000 *"
b00000000000000000000000000011100 ,"
b00000000000000000001000000000000 -"
b00000000000000000000000000011000 ."
b00000000000000000001000000000000 0"
b00000000000000000001000000000000 1"
b11111111111111111111101000101000 2"
b00000000000000000000101000101000 3"
b00000000000000000000000000011100 4"
b00000000000000000000101000101000 5"
b00000000000000000000000000011100 7"
18"
b00101 :"
b01000 ;"
b00000000000000000000101000101000 ="
b00000000000000000001000000000000 >"
b1010001010000010100000101 @"
b000 A"
b11111111111111111111101000101000 B"
b11111111111111111111101000101000 D"
b11111111111111111111101000101000 F"
b00000000000000000001000000000000 G"
b11111111111111111111101000101000 H"
b000 I"
b00000000000000000000101000101000 J"
0L"
b11111111111111111111101000101000 M"
b00000000000000000000101000101000 N"
b00000000000000000000101000101000 P"
b00000000000000000000101000101000 Q"
b00000000000000000000000000011100 S"
b00000000000000000000101000101000 U"
b00000000000000000000000000011000 V"
b10100010100000101000001010010011 W"
1X"
b00000000000000000000101000101000 Z"
#85000000
0'
0*
05
0g
0&"
08"
0X"
#90000000
b00000000000000000000101000101000 %
b00000000000000000000000100001000 &
1'
1)
1*
b00000000000000000000101000101000 ,
b00000000000000000000000100001000 -
1.
b00000000000000000000000000011100 /
b00010000010100000010010000100011 0
b00000000000000000000000000000000 1
12
b00000000000000000000101000101000 3
b00000000000000000000000100001000 4
15
b00000000000000000000000000011100 7
b00010000010100000010010000100011 8
19
b00000000000000000000000100001000 :
b00000000000000000000101000101000 ;
b00000000000000000000000000000000 <
0>
0@
b-- C
b001 D
b000 E
b0100011 F
b010 G
0I
b-- J
1K
1M
0N
b001 P
b000 Q
-R
b00 S
b0100011 V
b-- W
1X
0Y
1Z
0[
0\
b001 ]
b00 ^
-_
b000111--0000- `
1a
b010 b
b00 d
b000 e
1g
b-- i
0l
b001 m
b000 n
0o
b00000000000000000000000000011100 p
b00010000010100000010010000100011 q
b00000000000000000000000100001000 r
b00000000000000000000101000101000 s
b00000000000000000000000000000000 t
b00000000000000000000000000100000 v
b00000000000000000000000000100000 w
b00000000000000000000000000000000 x
b00000000000000000000000100001000 y
b00000000000000000000000100001000 z
b00000000000000000000000000000000 {
b00000000000000000000000100001000 |
b00000000000000000000000000011100 !"
b00000000000000000000101000101000 ""
b00000000000000000000000100001000 #"
0$"
0%"
1&"
b00000000000000000000000000100000 ("
b00000000000000000000000000011100 )"
b00000000000000000000000000011100 *"
b00000000000000000000000000100000 ,"
b00000000000000000000000000000000 -"
b00000000000000000000000000011100 ."
b00000000000000000000000000000000 0"
b00000000000000000000000000000000 1"
b00000000000000000000000100001000 2"
b00000000000000000000000100001000 3"
b00000000000000000000000000100000 4"
b00000000000000000000000100001000 5"
b00000000000000000000000000100000 7"
18"
09"
b00000 :"
b00101 ;"
b01000 <"
b00000000000000000000000000000000 >"
b00000000000000000000101000101000 ?"
b0001000001010000001001000 @"
b001 A"
b00000000000000000000000100001000 B"
b00000000000000000000101000101000 C"
b00000000000000000000000100001000 D"
b00000000000000000000000100001000 F"
b00000000000000000000000000000000 G"
b00000000000000000000000100001000 H"
b000 I"
b00000000000000000000000100001000 J"
0K"
0L"
b00000000000000000000000100001000 M"
b00000000000000000000000100001000 N"
b00000000000000000000000000000000 O"
b00000000000000000000000100001000 P"
b00000000000000000000000100001000 Q"
b00000000000000000000000000000000 R"
b00000000000000000000000000100000 S"
b-- T"
b00000000000000000000000000011100 V"
b00010000010100000010010000100011 W"
1X"
1Y"
b00000000000000000000000100001000 Z"
b00000000000000000000101000101000 ["
b00000000000000000000000000000000 \"
#95000000
0'
0*
05
0g
0&"
08"
0X"
#100000000
b00000000000000000000000000000000 %
b00000000000000000000010010000100 &
1'
0)
1*
b00000000000000000000000000000000 ,
b00000000000000000000010010000100 -
0.
b00000000000000000000000000100000 /
b01001000010000000000001010010011 0
02
b00000000000000000000000000000000 3
b00000000000000000000010010000100 4
15
b00000000000000000000000000100000 7
b01001000010000000000001010010011 8
09
b00000000000000000000010010000100 :
b00000000000000000000000000000000 ;
1>
b00 C
b000 D
b0010011 F
b000 G
1H
b00 J
0K
1M
1N
b000 P
-R
b10 S
b0010011 V
b00 W
0X
0Y
1Z
1[
0\
b000 ]
b10 ^
-_
b100010000100- `
0a
b000 b
1c
b10 d
1g
b00 i
1l
b000 m
b00000000000000000000000000100000 p
b01001000010000000000001010010011 q
b00000000000000000000010010000100 r
b00000000000000000000000000000000 s
b00000000000000000000000000100100 v
b00000000000000000000000000100100 w
b00000000000000000000010010000100 y
b00000000000000000000010010000100 z
b00000000000000000000010010000100 |
b00000000000000000000010010000100 }
b00000000000000000000000000100000 !"
b00000000000000000000000000000000 ""
b00000000000000000000010010000100 #"
1&"
b00000000000000000000000000100100 ("
b00000000000000000000000000100000 )"
b00000000000000000000000000100000 *"
b00000000000000000000000000100100 ,"
b00000000000000000000000000100000 ."
b00000000000000000000010010000100 2"
b00000000000000000000010010000100 3"
b00000000000000000000000000100100 4"
b00000000000000000000010010000100 5"
b00000000000000000000000000100100 7"
18"
19"
b00100 ;"
b00101 <"
b00000000000000000000010010000100 ="
b00000000000000000000000000000000 ?"
b0100100001000000000000101 @"
b000 A"
b00000000000000000000010010000100 B"
b00000000000000000000000000000000 C"
b00000000000000000000010010000100 D"
b00000000000000000000010010000100 F"
b00000000000000000000010010000100 H"
b00000000000000000000010010000100 J"
b00000000000000000000010010000100 M"
b00000000000000000000010010000100 N"
b00000000000000000000010010000100 P"
b00000000000000000000010010000100 Q"
b00000000000000000000000000100100 S"
b00 T"
b00000000000000000000010010000100 U"
b00000000000000000000000000100000 V"
b01001000010000000000001010010011 W"
1X"
0Y"
b00000000000000000000010010000100 Z"
b00000000000000000000000000000000 ["
#105000000
0'
0*
05
0g
0&"
08"
0X"
